-------------------------------------------------------------------------------
Test set: com.aem.community.core.models.TestHelloWorldModel
-------------------------------------------------------------------------------
Tests run: 1, Failures: 0, Errors: 0, Skipped: 0, Time elapsed: 0.169 sec - in com.aem.community.core.models.TestHelloWorldModel
